Location,Country
Villennes s. Seine (France),FR
"[New York, NY]",US
Villennes s/Seine,FR
"New York, NY",US
Budweis,CZ
ohne Ortsangabe,n/a
Strakonice,CZ
New York City,US
"Northam Devon, Commons near Bideford",UK
"San Francisco, Calif.",US
"[Newfoundland, N.J.]",US
Montauban,FR
"Philadelphia, Pa.",US
"Newfoundland, N. J.",US
Lisboa,PT
Springdale (Conn.),US
"Swarthmore, Pa.",US
"Washington, D. C.",US
Toulouse,FR
"[Newfoundland, N. J.]",US
Nice,FR
Marseille,FR
Casablanca,MA
Springdale/Conn.,US
Bermudas,UK
"Vera Cruz, Mexico",MX
"[Philadelphia, Pa.]",US
"[Newfoundland, N. J. ?]",US
Arlesheim/Basel,CH
Wien,AT
Paris,FR
"Hadlyme, Conn.",US
"Cambridge, Mass.",US
"Ogunquit, Me.",US
[Paris],FR
"Hollywood, Calif.",US
Prag-Břevnov,CS
Prag,CS
Ile aux Moines,UK
London,UK
[Prag],CS
Twickenham Middlesex,UK
Haifa,IL
[Frankfurt am Main],DE
Frankfurt on Main,DE
Geneva,CH
"Northfield, Minn.",US
Berlin,DE
[Berlin],DE
[Berlin?],DE
Göttingen,DE
Halle a. S.,DE
"New Haven, Conn.",US
Berlin-Westend,DE
Neuilly sur Seine,FR
Neuilly s. S.,FR
[Le Brusc],FR
Bordeaux,FR
"Colorado Springs, Colo.",US
"Camp 8, Australien, per Adresse Sydney",AU
"Providence, RI",US
[London],UK
Lugano,IT
[Lugano],IT
Colombes,FR
"Colombes, Seine",FR
"Woodstock, NY",US
"Stamford, Conn.",US
"Ciudad Trujillo, Rep. Dominicana",DO
Prague,CS
Moskau,RU
[Moskau],RU
"Jackson Heights, L. I.",US
"Newfoundland, N.J.",US
Zürich,CH
Basel,CH
Montagnola,IT
[Basel],CH
Leiden,DE
"Thomaston, Conn.",US
Katwijk aan Zee,NL
Luzern,CH
Leipzig,DE
Sanary s. mer,FR
Amsterdam,NL
Köln,DE
Nijmegen,NL
"Brooklyn, NY",US
"Brooklyn, New York, NY",US
Buenos Aires,AR
San Francisco,US
Lyngby bei Kopenhagen,DK
Lyngby,DK
[Lyngby],DK
Lyngby-Kopenhagen,DK
"New York, N. Y.",US
[Wien],AT
Stockholm,SE
Hamburg,DE
[Shanghai],CN
Malmö,SE
vor Kobe (Passagier des Dampfers 'Gneisenau'),JP
zwischen Kobe und Hongkong (Passagier des Dampfers 'Gneisenau'),JP
Manila | Stockholm,PH
Manila,PH
[Manila],PH
"El Paso, Texas",US
"[New York, NY | Chicago, Ill.]",US
Iowa City,US
"Long Island City, NY",US
Locarno,IT
"[Washington, D. C.]",US
"Saratoga Springs, NY",US
[Israel],IL
"[Saratoga Springs, NY]",US
"Marcoussis, Seine et Oise",FR
"[Marcoussis, Seine et Oise]",FR
"New York, NY | Marcoussis, Seine et Oise",US
"Le Brusc, Var.",FR
"[Le Brusc, Var.]",FR
Athis de l'Orne,FR
"Muret, Haute Garonne",FR
"St. Paul, Minn.",US
"Salt Lake City, Utah",US
Den Haag,NL
Scheveningen,NL
"[New York, NY] | London",US
Rotterdam,NL
"Seattle, Wash.",US
Washington DC,US
Dublin,IE
"Plessis-Robinson, Seine",FR
Oslo,FI
London | Ile aux Moines,UK
"Suresnes, Seine",FR
Jerusalem,IL
Tel Aviv,IL
Firenze [Florenz],IT
Firence [das ist Firenze],IT
[Florenz],IT
Firenze,IT
Saltocchio/Lucca,IT
Cagnes s.m.,FR
Lisboa [Lissabon],PT
"Frankfurt, Main",DE
"Marlboro, N. H.",US
"Marlbor[o], N. H.",US
Rom,IT
Praha [Prag],CS
Chicago,US
Prague [Prag],CS
"New Britain, Conn.",US
Shanghai,CN
"Waterbury, Conn.",US
"Burbank, Calif.",US
"Los Angeles, Calif.",US
Lancaster,UK
"Finsthwaite, Lancashire",UK
"[Finsthwaite, Lancashire]",UK
Lons-Le-Saunier,FR
"Threadneedle, St. Branch",UK
Kendal,UK
Newcastle upon Tyne,UK
[Kendal],UK
Bressana (Pavia),IT
Svendborg,DK
[Svendborg],DK
[Ile aux Moines ?],FR
Stockholm - Lidingö,SE
Lidingö - Stockholm,SE
Lidingö,SE
Helsingfors,SE
São Paulo,BR
St. Andrews,UK
"Clinton, Conn.",US
"Cleveland, Ohio",US
"Princeton, N. J.",US
"Holicong, PA.",US
Antwerpen,BE
"Le Lavandou, Var",FR
[Frankreich],FR
Laurens (Hérault),FR
Saint Louis,US
"[New York, NY?]",US
Lissabon,PT
[Lissabon],PT
Kopenhagen-Lyngby,DK
Kopenhagen,DK
Vichy,FR
Camp de Rieucros par Mende,FR
Rieucros par Mende,FR
"Newark, N. J.",US
[Marseille],FR
"Washington, DC",US
Südfrankreich,FR
Biarritz,FR
Sèvres,FR
Paris [vielmehr Sèvres],FR
[Sèvres],FR
Domme (Dordogne),FR
[Domme (Dordogne)],n/a
"Domme, Dordogne",n/a
"[Taos, N. M.]",n/a
"Taos, New Mexico",n/a
Lisbon [Lissabon],n/a
London | Zürich | Paris,n/a
Florenz,n/a
[Positano],n/a
Positano,n/a
Sydney (Camp),n/a
Neuilly-sur-Seine,n/a
[Neuilly-sur-Seine?],n/a
Neuilly s. Seine,n/a
Horní Černošice [Černoschitz] bei Prag,n/a
Keighley (Yorks),n/a
Capetown,n/a
Johannesburg,n/a
Cape Town,n/a
Cape Town [Kapstadt],n/a
Bucureşti [Bukarest],n/a
"Riverdale, N. J.",n/a
"Bukarest, Rumania",n/a
"Zena Mills, Woodstock, NY",n/a
Reykjavík,n/a
"Eskifirdi, Island",n/a
"Reykjavík, Island",n/a
[Reykjavík],n/a
"[Chester Springs, Pa.]",n/a
London | [Ile aux Moines],n/a
[Pfullingen],n/a
"Allston, Mass.",n/a
Prešov [Eperies],n/a
"Woodside, L. J. , NY",n/a
"[Taos, N.M.]",n/a
"[Eagle Rock, Cal.]",n/a
Bonn,n/a
South Villa,n/a
"Hudson, NY",n/a
Berlin [Poststempel:] Frankfurt/Oder,n/a
"Warm Springs, Ga.",n/a
SS.Nieuw Amsterdam (Überfahrt von Frankreich nach USA),n/a
"Ames, Iowa",n/a
"New York, N.Y.",n/a
Montevideo,n/a
Chatenay-Malabry,n/a
"Chatenay-Malabry, Seine",n/a
"Galesburg, Ill.",n/a
[Chatenay-Malabry],n/a
"[New York, NY], Church St. Annex",n/a
Dijon,n/a
[Prag?],n/a
Brissago,n/a
[Brissago],n/a
Ascona,n/a
Genf,n/a
Vienna [Wien],n/a
Oxford,n/a
"Westbury on Trym, Bristol",n/a
Cambridge,n/a
"Linden, Wellington",n/a
"Buffalo, NY",n/a
"Huntington, L. I.",n/a
München,n/a
Munich [München],n/a
[München],n/a
Milan [Mailand],n/a
[Milano],n/a
"Chicago, Ill.",n/a
[Mexiko],n/a
Mexiko,n/a
Budapest,n/a
"Finchley, Church End",n/a
Genova [Genua],n/a
Brünn,n/a
"Hampstead, N. W.",n/a
Jena,n/a
Frankfurt am Main,n/a
Warschau,n/a
Wilno,n/a
Montreuil-sous-Bois,n/a
Brive (Corrèze),n/a
[Brive],n/a
[London?],n/a
Detroit,n/a
Vindobonae [Wien],n/a
"Schloss Laxenburg, Nähe Wien",n/a
"Berkeley, Calif.",n/a
Sanary,n/a
Toulon s. mer,n/a
Cannes,n/a
Dulverton,n/a
Le Brusc,n/a
"[Newfoundland, N. J.?]",n/a
[Sanary],n/a
"Camp 7, Sidney [Sydney], Australia [Australien]",n/a
"Llanishen, Cardiff",n/a
"[Cambridge, Mass.]",n/a
"Beverly Hills, Calif.",n/a
"[Beverly Hills, Calif.]",n/a
"New York, NY? | London?",n/a
"Arlington, Vt.",n/a
"Manchester, Vt.",n/a
[Breslau],n/a
Merano [Meran],n/a
"[Scarsdale, NY]",n/a
Bruxelles [Brüssel],n/a
[Paris?],n/a
"Princeton, NJ",n/a
"Ripon, Wis.",n/a
[Basel?],n/a
"Stockholm, Ulfsunda-Almeborg",n/a
"Newark, NJ",n/a
Smedsbo by Kyrkely,n/a
"Bethel, Conn.",n/a
"Bridgeport, Conn.",n/a
Camp du Vernet,n/a
Berlin | Birmingham,n/a
"Le Thor, Vaucluse",n/a
"[Hollywood, Calif.]",n/a
Istanbul,n/a
[Frankfurt am Main] | ohne Ortsangabe,n/a
[Schweiz],n/a
[Ascona],n/a
Quito,n/a
Florence [Florenz],n/a
Bern,n/a
Bogotá,n/a
Moscia,n/a
[Ile aux Moines],n/a
Söborg-København,n/a
Bristol,n/a
"[Huntsville, Ala.]",n/a
Beaulieu s. Mer,n/a
Manchester,n/a
Toronto,n/a
Vancouver,n/a
Sarajevo,n/a
Bruxelles,n/a
"Amenia, NY",n/a
Arlesheim,n/a
"[Newfoundland, N.J.?]",n/a
"Oakland, Calif.",n/a
"Mills College, Calif.",n/a
Middlebury Vt.,n/a
"Boston, Mass.",n/a
"Bedford Village, NY",n/a
"Brno, CSR",n/a
Brno [Brünn],n/a
Anvers [Antwerpen],n/a
Amsterdam-Zuid,n/a
Amsterdam-Z[uid],n/a
Lyon,n/a
Muri,n/a
Barcelona,n/a
[Barcelona],n/a
[Bern],n/a
"Flushing, L.I.",n/a
"[Flushing, L.I.?]",n/a
Berlin | Koblenz,n/a
Fraize,n/a
[London-]Hampstead,n/a
Mexico,n/a
"Camp de Cépoy, Loiret",n/a
[Zürich?],n/a
's-Gravenhage,n/a
[Zürich],n/a
"Ronkonkoma, NY",n/a
Zürich | New York,n/a
Küsnacht,n/a
Davos,n/a
Messery,n/a
"Palo Alto, Calif.",n/a
"Stanford, Calif.",n/a
"[Berkeley, Calif.]",n/a
"West Park, NY",n/a
"Forest Hills, NY",n/a
Levico,n/a
Montpellier,n/a
Boston,n/a
Augon Talloires,n/a
"Lake Geneva, Wis.",n/a
[Augon Talloires],n/a
"Tarzana, Calif.",n/a
"Westport, Conn.",n/a
Pontigny,n/a
Nice [Nizza],n/a
"Great Neck, NY",n/a
Soultz Haut Rhin,n/a
Unterägeri,n/a
Geneva [Genf],n/a
Karlsruhe,n/a
Tauberbischofsheim,n/a
Freiburg i. Br.,n/a
Morzine,n/a
Erlangen,n/a
Châtenay-Malabry (Seine),n/a
Châtenay-Malabry,n/a
Arcegno-Losone,n/a
[Arcegno-Losone],n/a
"Ausable Forks, NY",n/a
Washington,n/a
"Putney, Vt.",n/a
"Topeka, Kan.",n/a
Strasbourg,n/a
Chust,n/a
"Oxford, Miss.",n/a
Hilversum,n/a
"Davenport, Iowa",n/a
Havana [Havanna],n/a
Wargrave,n/a
[Blackstone],n/a
Blackstone,n/a
"Kailahun, Sierra Leone",n/a
Minusio,n/a
Lugano-Massagno,n/a
Genève [Genf],n/a
Geneve [Genf],n/a
London | Ile-aux-Moines,n/a
Copenhagen [Kopenhagen],n/a
Villingebaek,n/a
[Villingebaek?],n/a
Hornbaek,n/a
"Vierzon, France (Camp de Sourioux)",n/a
"New Iberia, La.",n/a
"[New Iberia, La.]",n/a
New Orleans,n/a
"Kew Gardens, L. I., NY",n/a
"Sky Island, Nyack, NY",n/a
Moskau | [Paris],n/a
"Nyack, NY",n/a
"Sky Island, NY",n/a
"Syracuse, NY",n/a
[Ascona?],n/a
Bruxelles-St. Gilles,n/a
Brüssel,n/a
Berlin | Luzern,n/a
[Brüssel],n/a
"Holyoke, Mass.",n/a
Widen,n/a
Pinner,n/a
"N[ew] Y[ork, NY]",n/a
Porto Alegre,n/a
Sao Paulo,n/a
Cros de Cagnes,n/a
"Poughkeepsie, NY",n/a
"Jackson Heigths, L.I., NY",n/a
Montreux-Territet,n/a
Zürich | Leipzig,n/a
"[Oxford], Miss.",n/a
Camp de Vernet,n/a
Camp de Puy l'Evêque,n/a
[Périgneux],n/a
"Newfoundland, NJ",n/a
[Marseille?],n/a
Madrid,n/a
Clairac,n/a
"Douglaston, L.I.",n/a
[Tel-Aviv],n/a
Tel-Aviv,n/a
Fort de France,n/a
[Fort de France],n/a
Ciudad Trujillo [Santo Domingo],n/a
"Saint Louis, Mo.",n/a
"[Saint Louis, Mo.]",n/a
"Salem, Or.",n/a
"Woodmere, L.I.",n/a
Haarlem,n/a
Wien-Dornbach,n/a
Sutton-Pulborough,n/a
Chichester,n/a
Haslemere,n/a
"Princeton, N.J.",n/a
"[Woodstock, N.Y.]",n/a
"[Princeton, N.J.]",n/a
ohne Ortsangaben,n/a
Poitiers,n/a
Le Lavandou,n/a
Bormes,n/a
"[Los Angeles, Calif.]",n/a
Sydney,n/a
La Paz,n/a
"Tannersville, NY",n/a
Plessis-Robinson,n/a
[Ile aux Moines?],n/a
"New City, NY",n/a
"Langhorne, Pa.",n/a
[Paris | Strasbourg],n/a
"Baltimore, Md.",n/a
Bielefeld,n/a
Liegnitz,n/a
Berlin-Charlottenburg,n/a
"Canton, Mass.",n/a
"Norfolk, Mass.",n/a
Trouville,n/a
Ostende,n/a
"Virginia Beach, Va.",n/a
"Evanston, Wyo.",n/a
"Las Vegas, N. M.",n/a
"[Las Vegas, N. M.]",n/a
"Pueblo, Colo.",n/a
Versailles,n/a
[Amsterdam],n/a
"[Long Island, NY]",n/a
"Jamaica, L.I., NY",n/a
"Quillan, Aude",n/a
Brooklyn,n/a
"South Bend, Ind.",n/a
[Luzern?],n/a
Helsingfors [Helsinki],n/a
[Polen],n/a
Luxemburg,n/a
Roscahill,n/a
Rosca Hill [Roscahill],n/a
[Roscahill],n/a
Dundrum,n/a
"Albany, NY",n/a
Freiburg,n/a
Gif sur Yvette,n/a
Neustift am Walde,n/a
Wendover,n/a
"Wendover, Bucks.",n/a
London | [Paris],n/a
"Wimborne, Dorset",n/a
Wimborne,n/a
Wien [u.a.],n/a
Katowice [Kattowitz],n/a
[Kattowitz],n/a
Bedzin,n/a
"Barranquilla, Colombia",n/a
Barranquilla,n/a
Malcesine del Garda,n/a
"Hartford, Conn.",n/a
Luck,n/a
"Versailles, Ky.",n/a
København [Kopenhagen],n/a
"Astoria, L.I.",n/a
"[Astoria, L.I.?]",n/a
Berlin-Grunewald,n/a
[Rom],n/a
"Brackenridge, Pa.",n/a
"Berkely, Calif.",n/a
"Mexico, D.F.",n/a
"Scarsdale, NY",n/a
"Greenwich, Conn.",n/a
[Kopenhagen?],n/a
Tankefuld per Svenborg,n/a
"Chicago, Ill. | Somonauk, Ill.",n/a
Maranville,n/a
"Brookline, Mass.",n/a
"[Brookline, Mass.]",n/a
Vienne [Wien],n/a
Faulquemont,n/a
"Camp de Gurs, Basse-Pyrénees",n/a
"Bayonne, N. J.",n/a
"[Bayonne, N. J.?]",n/a
"Hawthorne, NY",n/a
"Nantucket, Mass.",n/a
Hyères,n/a
"Athens, Ga. | New York, NY",n/a
"[Athens, Ga.]",n/a
Camp du Milles,n/a
Berlin-Schoeneberg,n/a
"Weehawken, N.J.",n/a
"[Weehawken, N.J.]",n/a
Jerusalem-Talbije,n/a
Nervi,n/a
"Knightsville, R. I.",n/a
Damigny,n/a
[Mayenne?],n/a
[Nizza],n/a
"Amherst, Mass.",n/a
"Zürich | New York, NY",n/a
"Yonkers, NY",n/a
Kismarton,n/a
Montrouge,n/a
"Bronx, NY",n/a
[Ile aux Moines] | London,n/a
Bourges (Cher),n/a
Camp de Cépoy (Loiret),n/a
Heidelberg,n/a
"Tulsa, Okla.",n/a
Sils Baselgia,n/a
"New York, NY [?]",n/a
[Nizza?],n/a
Nice [Nizza] | Paris,n/a
Küsnacht-Zürich,n/a
Kuesnacht-Zuerich,n/a
"Jamestown, R.I.",n/a
London [?],n/a
Noordwijk aan Zee,n/a
"[Princeton, N.J.?]",n/a
"Brentwood-Los Angeles, Calif.",n/a
"Highmount, NY",n/a
"Providence, R.I.",n/a
Sanary (Var.),n/a
Kassel,n/a
"Darien, Conn.",n/a
St. Denis,n/a
Ginebra [Genf],n/a
Popayán,n/a
Berlin-Wilmersdorf,n/a
[Kassel],n/a
[Magdeburg],n/a
"Camp Ganspan 2 (Andalusia, Süd-Afrika)",n/a
"Morristown, N.J.",n/a
"Shenorock, NY",n/a
[Jerusalem],n/a
Villers-sur-Mer (Calvados),n/a
Aberdeen,n/a
Utrecht,n/a
Innsbruck,n/a
Salzburg,n/a
Grenoble (Hôpital),n/a
[Grenoble (Hôpital)],n/a
"Hauteville, Ain",n/a
"[Hauteville, Ain]",n/a
"Hauteville, [Ain]",n/a
"Kobe, Japan",n/a
Kobe,n/a
"Sakai, Osaka",n/a
Ascona [?],n/a
"Issy-les-Moulineaux, Seine",n/a
[Le Brusc?],n/a
"St. Louis, Mo.",n/a
"Richmond, Va.",n/a
"[Washington, DC]",n/a
Milano,n/a
[Florenz?],n/a
Venezia,n/a
Milan,n/a
"Camden, N.J.",n/a
"[Camden, N.J.?]",n/a
[Milan],n/a
Fiera,n/a
Venedig,n/a
Venise,n/a
Abbazia,n/a
"Caserna Concezione, Campagna (Salerno)",n/a
Genève,n/a
Fiesole,n/a
Rapperswil,n/a
Juan-les-Pins,n/a
Rapperswil/Zürichsee (Schweiz),n/a
"Carbrook, Long Crendon",n/a
"State College, Pa.",n/a
Frankfort on the Main,n/a
Enghien les Bains,n/a
"Camp de Vernet, Vernet d'Ariège",n/a
"Bryn Mawr, Pa.",n/a
"Bormes, Var",n/a
Ile-aux-Moines,n/a
Boarshill,n/a
Paris | Amsterdam,n/a
"Louisville, Ky.",n/a
Yale Station,n/a
Hannover,n/a
Kensington,n/a
Libourne,n/a
Ornaisons,n/a
Montjardin,n/a
Lisbonne,n/a
"Daytona Beach, Fla.",n/a
Albishaus ob Langnau,n/a
London?,n/a
Langnau am Albis,n/a
"Riverdale, NY",n/a
"Montpellier, Hérault",n/a
"Hornie Motesiče, Slovensko",n/a
"Douglaston, NY",n/a
[Mährisch-Ostrau],n/a
Praha,n/a
Jerusalem-Rechavia,n/a
Jerusalem-Rechaviah,n/a
"Altberg, Stein (Appenzell)",n/a
Stein (Appenzell),n/a
"Woodside, NY",n/a
"[New Haven, Conn.]",n/a
"Kimmeridge, Dorset",n/a
"[Oakland], Calif.",US
"Philadelphia, Pa. und andere",US
"Superior, Wis.",US
San Francisco Overland Ltd. [Zug],US
"Mills College, Oakland, Calif.",US
Hildesheim,DE
[Neuilly sur Seine?],FR
"Perkasie, Pa.",US
[New York?],US
Angers,FR
"Riga, Lettland",LV
"Zemgale, Lettland",LV
Varetz,FR
Lavandou,FR
Mexico-City,MX
Ulm,DE
Lausanne,CH
Kinnahult,SE
"Durham, N.C.",US
Maiden Newton,UK
"Tacuba, Mexico",MX
Lugano-Castagnola,IT
Castagnola-Lugano,IT
Tunis,TN
"Saltsjöbaden, Tattby (Stockholm)",SE
"Haverstraw, NY",US
Périgueux,FR
Paris | Versailles,FR
"Storrs, Conn.",US
"Périgueux, Dord.",FR
Copenhagen,DK
"Cincinnati, Ohio",US
Zagreb,HR
"Eastern Command, Camp 8 [Australien]",AU
[Stockholm?],SE
Mexico [Mexiko],MX
"[Mixcoac, D. F.]",MX
"Mixcoac, D. F.",MX
"Puerto Rico (Misiones), Argentina",AR
"Puerto Rico (Alto Paraná), Misiones, Argentinien",AR
"Puerto Rico, Argentinien",AR
"St. Maur des Fossés, Seine",FR
"St. Maur [des Fossés], Seine",FR
Betlis (Suisse),CH
"Santa Monica, Calif.",US
Nevers,FR
L'Isle - Adam,FR
"Highland Park, Ill.",US
Baltimore,US
"[Long Island City, NY]",US
Riga,LV
[Riga],LV
Newcastle,UK
"Newcastle, Staffs.",UK
Figueras,ES
Lisbon,PT
Nizza,FR
Havana-Vedado [Havanna],CU
[Havanna],CU
"Memphis, Tenn.",US
"[Memphis, Tenn.]",US
"Epsom, Surrey",UK
Dubrovnik,HR
Forio d'Ischia,IT
Porto d'Ischia,IT
Luxembourg,LU
Luxembourg | Zürich | Prag,LU
Küssnacht,CH
Zürich | Basel | Bern,CH
"Bâle, Suisse [Basel]",CH
"Kent Cliffs, NY",US
Weinfelden/Schweiz,CH
[Weinfelden/Schweiz],CH
Châtel St. Denis,FR
Lerici,IT
Brixen,CH
"Kew Gardens, NY",US
London u.a.,UK
"Ramat Gan, Palestine",PS
Combloux,FR
[Combloux],FR
London | [Ile aux Moines?],UK
Paris | London,FR
Ville d'Avray,FR
[Ville d'Avray],FR
Chexbres,CH
Vevey,CH
[Chexbres],CH
"Homestead, Fla.",US
"Miami, Fla.",US
"[Miami, Fla.]",US
"Kew Gardens, Long Island, NY",US
"Kew Garden[s], L. I., NY",US
"Nicosia, Cyprus",CY
"Pasadena, Calif.",US
Manchester-Salford,UK
"New Brunswick, N.J.",US
"Annemasse, Hte. Savoie",FR
"Annemasse, [Hte. Savoie]",FR
"Cedarhurst, NY",US
Villefranche sur Mer,FR
Menton A. M.,FR
Menton,FR
Chesham,UK
Olomone [Olmütz],CZ
"Hollandale, Minn.",US
"Sierra Madre, Calif.",US
[Neuilly sur Seine],FR
Athen,GR
"Bronx, New York, NY",US
"Montauban, Tarn et Garonne",FR
Berlin-Halensee,DE
Stettin,PL
Bromberg,PL
"Detroit, Mich.",US
"Amityville, NY",US
Berlin | Wien,DE
Cap Martin,FR
Oostende,BE
Interlaken,CH
Carona-Lugano,IT
Saarbrücken,DE
Courbevoie,FR
"Taos, N.M.",US
Le Thor,FR
"Plymouth, N.H.",UK
[Amorbach?],DE
"Pacific Palisades, Calif.",US
Cassis sur Mer,FR
[Ort unleserlich],n/a
"Jackson Heights, L. J.",US
Boulogne sur Seine,FR
Nimes,FR
"Savannah, Ga.",US
Vaduz,LI
New Haven (Conn.),US
[Pyla sur Mer],FR
Pyla sur Mer,FR
Arcachon,FR
New York,US
Viney Hill,UK
"Roscoe, Calif.",US
"Jackson Heights, NY",US
"Sea Gate, NY",US
"Vanves, Seine",FR
Pau (B. Pyrénées),FR
"Weston, Vt.",US
Albis (Schweiz),CH
Albis,CH
"Mississippi, Miss.",US
"[Brooklyn, NY]",US
"Little Sandhurst, Surrey",UK
Nancy,FR
[Nancy],FR
Neuilly (Seine),FR
Chatel,CH
"Boothbay Harbor, Me.",US
"[Boothbay Harbor, Me.]",US
"[Boothbay Harbor, Me.?]",US
"Upper Montclair [?], N.J.",US
"Morgantown, W Va.",US
[Bad Godesberg],DE
Wien u.a.,AT
"Wien [vielmehr New York, NY]",US
St. Germain en Leye [Laye],FR
[Brünn],CZ
Reigate,UK
Berlin-Schöneberg,DE
Oberursel (Taunus),DE
[Rom?],IT
"Ferramonti, Tarsia, Campo di Concentramento",IT
Rio de Janeiro,BR
Bergen,NO
Mähr.-Ostrau,CZ
"Le Lavandou, Var.",FR
Carassonne,FR
San Remo,IT
[San Remo],IT
"Châtenay-Malabry, Seine",FR
Châtenay-Malabry/Seine,FR
"Le Vésinet, Seine & Oise",FR
"[Greenwich, Conn.]",US
[Buenos Aires?],AR
"New Heaven, Conn.",US
"Taos, N. M.",US
"New York, NY | [Newfoundland, N.J.]",US
Croydon,UK
Milano [Mailand],IT
Mailand,IT
Roquebrune,FR
Amityville,US
Bratislava,SK
"[Oxford, Miss.]",US
Bad Pistyan,SK
"Reigate, Surrey",UK
"New Orleans, La.",US
San Franciso,US
Bath,UK
Petropolis,BR
